tester/tb.vcd
$date
	Tue Apr 25 09:09:56 2023
$end
$version
	Icarus Verilog
$end
$timescale
	1s
$end
$scope module testbench $end
$var wire 32 ! writedata [31:0] $end
$var wire 1 " memwrite $end
$var wire 32 # dataadr [31:0] $end
$var reg 1 $ clk $end
$var reg 1 % reset $end
$scope module dut $end
$var wire 1 $ clk $end
$var wire 1 % reset $end
$var wire 32 & writedata [31:0] $end
$var wire 32 ' readdata [31:0] $end
$var wire 32 ( pc [31:0] $end
$var wire 1 " memwrite $end
$var wire 32 ) instr [31:0] $end
$var wire 32 * dataadr [31:0] $end
$scope module dmem $end
$var wire 1 $ clk $end
$var wire 32 + rd [31:0] $end
$var wire 1 " we $end
$var wire 32 , wd [31:0] $end
$var wire 32 - a [31:0] $end
$upscope $end
$scope module imem $end
$var wire 6 . a [5:0] $end
$var wire 32 / rd [31:0] $end
$upscope $end
$scope module mips $end
$var wire 1 $ clk $end
$var wire 32 0 instr [31:0] $end
$var wire 32 1 readdata [31:0] $end
$var wire 1 % reset $end
$var wire 1 2 zero $end
$var wire 32 3 writedata [31:0] $end
$var wire 1 4 regwrite $end
$var wire 1 5 regdst $end
$var wire 1 6 pcsrc $end
$var wire 32 7 pc [31:0] $end
$var wire 1 " memwrite $end
$var wire 1 8 memtoreg $end
$var wire 1 9 jump $end
$var wire 1 : alusrc $end
$var wire 32 ; aluout [31:0] $end
$var wire 3 < alucontrol [2:0] $end
$scope module c $end
$var wire 6 = funct [5:0] $end
$var wire 6 > op [5:0] $end
$var wire 1 6 pcsrc $end
$var wire 1 2 zero $end
$var wire 1 4 regwrite $end
$var wire 1 5 regdst $end
$var wire 1 " memwrite $end
$var wire 1 8 memtoreg $end
$var wire 1 9 jump $end
$var wire 1 ? branch $end
$var wire 1 : alusrc $end
$var wire 2 @ aluop [1:0] $end
$var wire 3 A alucontrol [2:0] $end
$scope module ad $end
$var wire 6 B funct [5:0] $end
$var wire 2 C aluop [1:0] $end
$var reg 3 D alucontrol [2:0] $end
$upscope $end
$scope module md $end
$var wire 6 E op [5:0] $end
$var wire 1 4 regwrite $end
$var wire 1 5 regdst $end
$var wire 1 " memwrite $end
$var wire 1 8 memtoreg $end
$var wire 1 9 jump $end
$var wire 1 ? branch $end
$var wire 1 : alusrc $end
$var wire 2 F aluop [1:0] $end
$var reg 9 G controls [8:0] $end
$upscope $end
$upscope $end
$scope module dp $end
$var wire 3 H alucontrol [2:0] $end
$var wire 1 : alusrc $end
$var wire 1 $ clk $end
$var wire 32 I instr [31:0] $end
$var wire 1 9 jump $end
$var wire 1 8 memtoreg $end
$var wire 1 6 pcsrc $end
$var wire 32 J readdata [31:0] $end
$var wire 1 5 regdst $end
$var wire 1 4 regwrite $end
$var wire 1 % reset $end
$var wire 1 2 zero $end
$var wire 5 K writereg [4:0] $end
$var wire 32 L writedata [31:0] $end
$var wire 32 M srcb [31:0] $end
$var wire 32 N srca [31:0] $end
$var wire 32 O signimmsh [31:0] $end
$var wire 32 P signimm [31:0] $end
$var wire 32 Q result [31:0] $end
$var wire 32 R pcplus4 [31:0] $end
$var wire 32 S pcnextbr [31:0] $end
$var wire 32 T pcnext [31:0] $end
$var wire 32 U pcbranch [31:0] $end
$var wire 32 V pc [31:0] $end
$var wire 32 W aluout [31:0] $end
$scope module alu $end
$var wire 3 X c [2:0] $end
$var wire 1 2 zero $end
$var wire 32 Y b [31:0] $end
$var wire 32 Z a [31:0] $end
$var reg 32 [ y [31:0] $end
$upscope $end
$scope module immsh $end
$var wire 32 \ y [31:0] $end
$var wire 32 ] a [31:0] $end
$upscope $end
$scope module pcadd1 $end
$var wire 32 ^ b [31:0] $end
$var wire 32 _ c [31:0] $end
$var wire 32 ` a [31:0] $end
$upscope $end
$scope module pcadd2 $end
$var wire 32 a a [31:0] $end
$var wire 32 b b [31:0] $end
$var wire 32 c c [31:0] $end
$upscope $end
$scope module pcbrmux $end
$var wire 32 d d0 [31:0] $end
$var wire 32 e d1 [31:0] $end
$var wire 1 6 s $end
$var wire 32 f y [31:0] $end
$upscope $end
$scope module pcmux $end
$var wire 32 g d0 [31:0] $end
$var wire 32 h d1 [31:0] $end
$var wire 1 9 s $end
$var wire 32 i y [31:0] $end
$upscope $end
$scope module pcreg $end
$var wire 1 $ clk $end
$var wire 32 j d [31:0] $end
$var wire 1 % reset $end
$var reg 32 k q [31:0] $end
$upscope $end
$scope module resmux $end
$var wire 32 l d0 [31:0] $end
$var wire 32 m d1 [31:0] $end
$var wire 1 8 s $end
$var wire 32 n y [31:0] $end
$upscope $end
$scope module rf $end
$var wire 1 $ clk $end
$var wire 5 o ra1 [4:0] $end
$var wire 5 p ra2 [4:0] $end
$var wire 32 q wd3 [31:0] $end
$var wire 1 4 we3 $end
$var wire 5 r wa3 [4:0] $end
$var wire 32 s rd2 [31:0] $end
$var wire 32 t rd1 [31:0] $end
$upscope $end
$scope module se $end
$var wire 16 u a [15:0] $end
$var wire 32 v y [31:0] $end
$upscope $end
$scope module srcbmux $end
$var wire 32 w d0 [31:0] $end
$var wire 32 x d1 [31:0] $end
$var wire 1 : s $end
$var wire 32 y y [31:0] $end
$upscope $end
$scope module wrmux $end
$var wire 5 z d0 [4:0] $end
$var wire 5 { d1 [4:0] $end
$var wire 1 5 s $end
$var wire 5 | y [4:0] $end
$upscope $end
$upscope $end
$upscope $end
$upscope $end
$upscope $end
$enddefinitions $end
#0
$dumpvars
b10 |
b0 {
b10 z
b101 y
b101 x
bx w
b101 v
b101 u
b0 t
bx s
b10 r
b101 q
b10 p
b0 o
b101 n
bx m
b101 l
b0 k
b100 j
b100 i
b10000000000000010100 h
b100 g
b100 f
b11000 e
b100 d
b11000 c
b10100 b
b100 a
b0 `
b100 _
b100 ^
b101 ]
b10100 \
b101 [
b0 Z
b101 Y
b10 X
b101 W
b0 V
b11000 U
b100 T
b100 S
b100 R
b101 Q
b101 P
b10100 O
b0 N
b101 M
bx L
b10 K
bx J
b100000000000100000000000000101 I
b10 H
b101000000 G
b0 F
b1000 E
b10 D
b0 C
b101 B
b10 A
b0 @
0?
b1000 >
b101 =
b10 <
b101 ;
1:
09
08
b0 7
06
05
14
bx 3
02
bx 1
b100000000000100000000000000101 0
b100000000000100000000000000101 /
b0 .
b101 -
bx ,
bx +
b101 *
b100000000000100000000000000101 )
b0 (
bx '
bx &
1%
1$
b101 #
0"
bx !
$end
#5
0$
#10
b101 !
b101 &
b101 ,
b101 3
b101 L
b101 s
b101 w
1$
#15
0$
#20
1$
#22
0%
#25
0$
#30
b1100 Q
b1100 n
b1100 q
b1100 #
b1100 *
b1100 -
b1100 ;
b1100 W
b1100 [
b1100 l
bx !
bx &
bx ,
bx 3
bx L
bx s
bx w
b11 K
b11 r
b11 |
b1100 M
b1100 Y
b1100 y
b110000 O
b110000 \
b110000 b
b1000 T
b1000 i
b1000 j
b1100 =
b1100 B
b11000000000000110000 h
b11 p
b11 z
b1100 P
b1100 ]
b1100 v
b1100 x
b1100 u
b1000 S
b1000 f
b1000 g
b100000000000110000000000001100 )
b100000000000110000000000001100 /
b100000000000110000000000001100 0
b100000000000110000000000001100 I
b1 .
b111000 U
b111000 c
b111000 e
b1000 R
b1000 _
b1000 a
b1000 d
b100 (
b100 7
b100 V
b100 `
b100 k
1$
#35
0$
#40
b11 Q
b11 n
b11 q
b11 #
b11 *
b11 -
b11 ;
b11 W
b11 [
b11 l
b1100 N
b1100 Z
b1100 t
b111 K
b111 r
b111 |
b11111111111111111111111111110111 M
b11111111111111111111111111110111 Y
b11111111111111111111111111110111 y
b11111111111111111111111111011100 O
b11111111111111111111111111011100 \
b11111111111111111111111111011100 b
b1100 T
b1100 i
b1100 j
b110111 =
b110111 B
b1100111111111111111011100 h
b11 o
b111 p
b111 z
b11111 {
b11111111111111111111111111110111 P
b11111111111111111111111111110111 ]
b11111111111111111111111111110111 v
b11111111111111111111111111110111 x
b1111111111110111 u
bx !
bx &
bx ,
bx 3
bx L
bx s
bx w
b1100 S
b1100 f
b1100 g
b100000011001111111111111110111 )
b100000011001111111111111110111 /
b100000011001111111111111110111 0
b100000011001111111111111110111 I
b10 .
b11111111111111111111111111101000 U
b11111111111111111111111111101000 c
b11111111111111111111111111101000 e
b1100 R
b1100 _
b1100 a
b1100 d
b1000 (
b1000 7
b1000 V
b1000 `
b1000 k
1$
#45
0$
#50
b1 <
b1 A
b1 D
b1 H
b1 X
b1 Q
b1 n
b1 q
15
0:
b10 @
b10 C
b10 F
b1 #
b1 *
b1 -
b1 ;
b1 W
b1 [
b1 l
b110000010 G
b11 N
b11 Z
b11 t
b100 K
b100 r
b100 |
b101 M
b101 Y
b101 y
b1000000010010100 O
b1000000010010100 \
b1000000010010100 b
b10000 T
b10000 i
b10000 j
b0 >
b0 E
b100101 =
b100101 B
b11100010001000000010010100 h
b111 o
b10 p
b10 z
b100 {
b10000000100101 P
b10000000100101 ]
b10000000100101 v
b10000000100101 x
b10000000100101 u
b101 !
b101 &
b101 ,
b101 3
b101 L
b101 s
b101 w
b10000 S
b10000 f
b10000 g
b111000100010000000100101 )
b111000100010000000100101 /
b111000100010000000100101 0
b111000100010000000100101 I
b11 .
b1000000010100100 U
b1000000010100100 c
b1000000010100100 e
b10000 R
b10000 _
b10000 a
b10000 d
b1100 (
b1100 7
b1100 V
b1100 `
b1100 k
1$
#55
0$
#60
b1 M
b1 Y
b1 y
b0 <
b0 A
b0 D
b0 H
b0 X
b1100 N
b1100 Z
b1100 t
b1 !
b1 &
b1 ,
b1 3
b1 L
b1 s
b1 w
b101 K
b101 r
b101 |
b1010000010010000 O
b1010000010010000 \
b1010000010010000 b
b10100 T
b10100 i
b10100 j
b100100 =
b100100 B
b1100100001010000010010000 h
b11 o
b100 p
b100 z
b101 {
b10100000100100 P
b10100000100100 ]
b10100000100100 v
b10100000100100 x
b10100000100100 u
b10100 S
b10100 f
b10100 g
b11001000010100000100100 )
b11001000010100000100100 /
b11001000010100000100100 0
b11001000010100000100100 I
b100 .
b1010000010100100 U
b1010000010100100 c
b1010000010100100 e
b10100 R
b10100 _
b10100 a
b10100 d
b10000 (
b10000 7
b10000 V
b10000 `
b10000 k
1$
#65
0$
#70
b10 Q
b10 n
b10 q
b10 #
b10 *
b10 -
b10 ;
b10 W
b10 [
b10 l
b10 <
b10 A
b10 D
b10 H
b10 X
b1 N
b1 Z
b1 t
b1010000010000000 O
b1010000010000000 \
b1010000010000000 b
b11000 T
b11000 i
b11000 j
b100000 =
b100000 B
b10100100001010000010000000 h
b101 o
b10100000100000 P
b10100000100000 ]
b10100000100000 v
b10100000100000 x
b10100000100000 u
b11000 S
b11000 f
b11000 g
b101001000010100000100000 )
b101001000010100000100000 /
b101001000010100000100000 0
b101001000010100000100000 I
b101 .
b1010000010011000 U
b1010000010011000 c
b1010000010011000 e
b11000 R
b11000 _
b11000 a
b11000 d
b10100 (
b10100 7
b10100 V
b10100 `
b10100 k
1$
#75
0$
#80
04
05
1?
b1 @
b1 C
b1 F
b11 M
b11 Y
b11 y
b11111111111111111111111111111111 Q
b11111111111111111111111111111111 n
b11111111111111111111111111111111 q
b100001 G
b110 <
b110 A
b110 D
b110 H
b110 X
b11 !
b11 &
b11 ,
b11 3
b11 L
b11 s
b11 w
b111 K
b111 r
b111 |
b101000 O
b101000 \
b101000 b
b11111111111111111111111111111111 #
b11111111111111111111111111111111 *
b11111111111111111111111111111111 -
b11111111111111111111111111111111 ;
b11111111111111111111111111111111 W
b11111111111111111111111111111111 [
b11111111111111111111111111111111 l
b11100 T
b11100 i
b11100 j
b100 >
b100 E
b1010 =
b1010 B
b10100111000000000000101000 h
b111 p
b111 z
b0 {
b1010 P
b1010 ]
b1010 v
b1010 x
b1010 u
b10 N
b10 Z
b10 t
b11100 S
b11100 f
b11100 g
b10000101001110000000000001010 )
b10000101001110000000000001010 /
b10000101001110000000000001010 0
b10000101001110000000000001010 I
b110 .
b1000100 U
b1000100 c
b1000100 e
b11100 R
b11100 _
b11100 a
b11100 d
b11000 (
b11000 7
b11000 V
b11000 `
b11000 k
1$
#85
0$
#90
b111 <
b111 A
b111 D
b111 H
b111 X
b110000 Q
b110000 n
b110000 q
14
15
0?
b10 @
b10 C
b10 F
b110000 #
b110000 *
b110000 -
b110000 ;
b110000 W
b110000 [
b110000 l
b1 M
b1 Y
b1 y
b110000010 G
b1100 N
b1100 Z
b1100 t
b1 !
b1 &
b1 ,
b1 3
b1 L
b1 s
b1 w
b100 K
b100 r
b100 |
b1000000010101000 O
b1000000010101000 \
b1000000010101000 b
b100000 T
b100000 i
b100000 j
b0 >
b0 E
b101010 =
b101010 B
b1100100001000000010101000 h
b11 o
b100 p
b100 z
b100 {
b10000000101010 P
b10000000101010 ]
b10000000101010 v
b10000000101010 x
b10000000101010 u
b100000 S
b100000 f
b100000 g
b11001000010000000101010 )
b11001000010000000101010 /
b11001000010000000101010 0
b11001000010000000101010 I
b111 .
b1000000011001000 U
b1000000011001000 c
b1000000011001000 e
b100000 R
b100000 _
b100000 a
b100000 d
b11100 (
b11100 7
b11100 V
b11100 `
b11100 k
1$
#95
0$
#100
04
05
1?
b1 @
b1 C
b1 F
b100001 G
b110 <
b110 A
b110 D
b110 H
b110 X
b110000 N
b110000 Z
b110000 t
b0 K
b0 r
b0 |
b100 O
b100 \
b100 b
b0 M
b0 Y
b0 y
b100100 T
b100100 i
b100100 j
b100 >
b100 E
b1 =
b1 B
b10000000000000000000000100 h
b100 o
b0 p
b0 z
b0 {
b1 P
b1 ]
b1 v
b1 x
b1 u
b0 !
b0 &
b0 ,
b0 3
b0 L
b0 s
b0 w
b100100 S
b100100 f
b100100 g
b10000100000000000000000000001 )
b10000100000000000000000000001 /
b10000100000000000000000000001 0
b10000100000000000000000000001 I
b1000 .
b101000 U
b101000 c
b101000 e
b100100 R
b100100 _
b100100 a
b100100 d
b100000 (
b100000 7
b100000 V
b100000 `
b100000 k
1$
#105
0$
#110
b10 <
b10 A
b10 D
b10 H
b10 X
b0 Q
b0 n
b0 q
14
1:
0?
b0 @
b0 C
b0 F
b0 #
b0 *
b0 -
b0 ;
b0 W
b0 [
b0 l
b0 M
b0 Y
b0 y
b101000000 G
b0 N
b0 Z
b0 t
b10 !
b10 &
b10 ,
b10 3
b10 L
b10 s
b10 w
b101 K
b101 r
b101 |
b0 O
b0 \
b0 b
b101000 T
b101000 i
b101000 j
b1000 >
b1000 E
b0 =
b0 B
b101000000000000000000 h
b0 o
b101 p
b101 z
b0 P
b0 ]
b0 v
b0 x
b0 u
b101000 S
b101000 f
b101000 g
b100000000001010000000000000000 )
b100000000001010000000000000000 /
b100000000001010000000000000000 0
b100000000001010000000000000000 I
b1001 .
b101000 U
b101000 c
b101000 e
b101000 R
b101000 _
b101000 a
b101000 d
b100100 (
b100100 7
b100100 V
b100100 `
b100100 k
1$
#115
0$
#120
b111 <
b111 A
b111 D
b111 H
b111 X
b1100 Q
b1100 n
b1100 q
15
0:
b10 @
b10 C
b10 F
b1100 #
b1100 *
b1100 -
b1100 ;
b1100 W
b1100 [
b1100 l
b110000010 G
b11 N
b11 Z
b11 t
b100 K
b100 r
b100 |
b101 M
b101 Y
b101 y
b1000000010101000 O
b1000000010101000 \
b1000000010101000 b
b101100 T
b101100 i
b101100 j
b0 >
b0 E
b101010 =
b101010 B
b11100010001000000010101000 h
b111 o
b10 p
b10 z
b100 {
b10000000101010 P
b10000000101010 ]
b10000000101010 v
b10000000101010 x
b10000000101010 u
b101 !
b101 &
b101 ,
b101 3
b101 L
b101 s
b101 w
b101100 S
b101100 f
b101100 g
b111000100010000000101010 )
b111000100010000000101010 /
b111000100010000000101010 0
b111000100010000000101010 I
b1010 .
b1000000011010100 U
b1000000011010100 c
b1000000011010100 e
b101100 R
b101100 _
b101100 a
b101100 d
b101000 (
b101000 7
b101000 V
b101000 `
b101000 k
1$
#125
0$
#130
b0 M
b0 Y
b0 y
b10 <
b10 A
b10 D
b10 H
b10 X
b1100 N
b1100 Z
b1100 t
b0 !
b0 &
b0 ,
b0 3
b0 L
b0 s
b0 w
b111 K
b111 r
b111 |
b1110000010000000 O
b1110000010000000 \
b1110000010000000 b
b110000 T
b110000 i
b110000 j
b100000 =
b100000 B
b10000101001110000010000000 h
b100 o
b101 p
b101 z
b111 {
b11100000100000 P
b11100000100000 ]
b11100000100000 v
b11100000100000 x
b11100000100000 u
b110000 S
b110000 f
b110000 g
b100001010011100000100000 )
b100001010011100000100000 /
b100001010011100000100000 0
b100001010011100000100000 I
b1011 .
b1110000010110000 U
b1110000010110000 c
b1110000010110000 e
b110000 R
b110000 _
b110000 a
b110000 d
b101100 (
b101100 7
b101100 V
b101100 `
b101100 k
1$
#135
0$
#140
b111 Q
b111 n
b111 q
b111 #
b111 *
b111 -
b111 ;
b111 W
b111 [
b111 l
b101 M
b101 Y
b101 y
b110 <
b110 A
b110 D
b110 H
b110 X
b101 !
b101 &
b101 ,
b101 3
b101 L
b101 s
b101 w
b1110000010001000 O
b1110000010001000 \
b1110000010001000 b
b110100 T
b110100 i
b110100 j
b100010 =
b100010 B
b11100010001110000010001000 h
b111 o
b10 p
b10 z
b11100000100010 P
b11100000100010 ]
b11100000100010 v
b11100000100010 x
b11100000100010 u
b110100 S
b110100 f
b110100 g
b111000100011100000100010 )
b111000100011100000100010 /
b111000100011100000100010 0
b111000100011100000100010 I
b1100 .
b1110000010111100 U
b1110000010111100 c
b1110000010111100 e
b110100 R
b110100 _
b110100 a
b110100 d
b110000 (
b110000 7
b110000 V
b110000 `
b110000 k
1$
#145
0$
#150
04
05
1:
1"
b0 @
b0 C
b0 F
b1000100 M
b1000100 Y
b1000100 y
b1010000 Q
b1010000 n
b1010000 q
b1010000 G
b10 <
b10 A
b10 D
b10 H
b10 X
b111 !
b111 &
b111 ,
b111 3
b111 L
b111 s
b111 w
b111 K
b111 r
b111 |
b100010000 O
b100010000 \
b100010000 b
b1010000 #
b1010000 *
b1010000 -
b1010000 ;
b1010000 W
b1010000 [
b1010000 l
b111000 T
b111000 i
b111000 j
b101011 >
b101011 E
b100 =
b100 B
b1100111000000000100010000 h
b11 o
b111 p
b111 z
b0 {
b1000100 P
b1000100 ]
b1000100 v
b1000100 x
b1000100 u
b1100 N
b1100 Z
b1100 t
b111000 S
b111000 f
b111000 g
b10101100011001110000000001000100 )
b10101100011001110000000001000100 /
b10101100011001110000000001000100 0
b10101100011001110000000001000100 I
b1101 .
b101001000 U
b101001000 c
b101001000 e
b111000 R
b111000 _
b111000 a
b111000 d
b110100 (
b110100 7
b110100 V
b110100 `
b110100 k
1$
#155
0$
#160
b111 Q
b111 n
b111 q
14
0"
18
b101001000 G
b0 N
b0 Z
b0 t
b101 !
b101 &
b101 ,
b101 3
b101 L
b101 s
b101 w
b10 K
b10 r
b10 |
b1010000 M
b1010000 Y
b1010000 y
b101000000 O
b101000000 \
b101000000 b
b111100 T
b111100 i
b111100 j
b100011 >
b100011 E
b10000 =
b10000 B
b10000000000101000000 h
b0 o
b10 p
b10 z
b1010000 P
b1010000 ]
b1010000 v
b1010000 x
b1010000 u
b111100 S
b111100 f
b111100 g
b10001100000000100000000001010000 )
b10001100000000100000000001010000 /
b10001100000000100000000001010000 0
b10001100000000100000000001010000 I
b1110 .
b111 '
b111 +
b111 1
b111 J
b111 m
b101111100 U
b101111100 c
b101111100 e
b111100 R
b111100 _
b111100 a
b111100 d
b111000 (
b111000 7
b111000 V
b111000 `
b111000 k
1$
#165
0$
#170
b0 Q
b0 n
b0 q
bx '
bx +
bx 1
bx J
bx m
04
0:
08
19
b0 #
b0 *
b0 -
b0 ;
b0 W
b0 [
b0 l
b100 G
b0 K
b0 r
b0 |
b0 M
b0 Y
b0 y
b1000100 O
b1000100 \
b1000100 b
b1000100 T
b1000100 i
b1000100 j
b10 >
b10 E
b10001 =
b10001 B
b1000100 h
b0 p
b0 z
b10001 P
b10001 ]
b10001 v
b10001 x
b10001 u
b0 !
b0 &
b0 ,
b0 3
b0 L
b0 s
b0 w
b1000000 S
b1000000 f
b1000000 g
b1000000000000000000000010001 )
b1000000000000000000000010001 /
b1000000000000000000000010001 0
b1000000000000000000000010001 I
b1111 .
b10000100 U
b10000100 c
b10000100 e
b1000000 R
b1000000 _
b1000000 a
b1000000 d
b111100 (
b111100 7
b111100 V
b111100 `
b111100 k
1$
#175
0$
#180
b1010100 Q
b1010100 n
b1010100 q
b1010100 #
b1010100 *
b1010100 -
b1010100 ;
b1010100 W
b1010100 [
b1010100 l
1:
1"
09
b1010100 M
b1010100 Y
b1010100 y
b1010000 G
b1001000 T
b1001000 i
b1001000 j
b111 !
b111 &
b111 ,
b111 3
b111 L
b111 s
b111 w
b10 K
b10 r
b10 |
b101010000 O
b101010000 \
b101010000 b
b101011 >
b101011 E
b10100 =
b10100 B
b10000000000101010000 h
b10 p
b10 z
b1010100 P
b1010100 ]
b1010100 v
b1010100 x
b1010100 u
b1001000 S
b1001000 f
b1001000 g
b10101100000000100000000001010100 )
b10101100000000100000000001010100 /
b10101100000000100000000001010100 0
b10101100000000100000000001010100 I
b10001 .
b110011000 U
b110011000 c
b110011000 e
b1001000 R
b1001000 _
b1001000 a
b1001000 d
b1000100 (
b1000100 7
b1000100 V
b1000100 `
b1000100 k
1$
